%YAML 1.1
%TAG !u! tag:unity3d.com,2011:
--- !u!1 &1350102247522667544
GameObject:
  m_ObjectHideFlags: 0
  m_CorrespondingSourceObject: {fileID: 0}
  m_PrefabInstance: {fileID: 0}
  m_PrefabAsset: {fileID: 0}
  serializedVersion: 6
  m_Component:
  - component: {fileID: 1350102247522667545}
  m_Layer: 0
  m_Name: CrateMeatSet01
  m_TagString: Untagged
  m_Icon: {fileID: 0}
  m_NavMeshLayer: 0
  m_StaticEditorFlags: 0
  m_IsActive: 1
--- !u!4 &1350102247522667545
Transform:
  m_ObjectHideFlags: 0
  m_CorrespondingSourceObject: {fileID: 0}
  m_PrefabInstance: {fileID: 0}
  m_PrefabAsset: {fileID: 0}
  m_GameObject: {fileID: 1350102247522667544}
  m_LocalRotation: {x: -0, y: -0, z: -0, w: 1}
  m_LocalPosition: {x: 0, y: 0, z: 0}
  m_LocalScale: {x: 1, y: 1, z: 1}
  m_Children:
  - {fileID: 5184567889155610723}
  - {fileID: 5154483944719875527}
  m_Father: {fileID: 0}
  m_RootOrder: 0
  m_LocalEulerAnglesHint: {x: 0, y: 0, z: 0}
--- !u!1001 &1350102247201086739
PrefabInstance:
  m_ObjectHideFlags: 0
  serializedVersion: 2
  m_Modification:
    m_TransformParent: {fileID: 1350102247522667545}
    m_Modifications:
    - target: {fileID: 6147360515185493360, guid: 80eb034f052dba941b1d4b146f79a67e,
        type: 3}
      propertyPath: m_LocalPosition.x
      value: 0.42
      objectReference: {fileID: 0}
    - target: {fileID: 6147360515185493360, guid: 80eb034f052dba941b1d4b146f79a67e,
        type: 3}
      propertyPath: m_LocalPosition.y
      value: 0
      objectReference: {fileID: 0}
    - target: {fileID: 6147360515185493360, guid: 80eb034f052dba941b1d4b146f79a67e,
        type: 3}
      propertyPath: m_LocalPosition.z
      value: -0.07
      objectReference: {fileID: 0}
    - target: {fileID: 6147360515185493360, guid: 80eb034f052dba941b1d4b146f79a67e,
        type: 3}
      propertyPath: m_LocalRotation.x
      value: -0
      objectReference: {fileID: 0}
    - target: {fileID: 6147360515185493360, guid: 80eb034f052dba941b1d4b146f79a67e,
        type: 3}
      propertyPath: m_LocalRotation.y
      value: 0.844445
      objectReference: {fileID: 0}
    - target: {fileID: 6147360515185493360, guid: 80eb034f052dba941b1d4b146f79a67e,
        type: 3}
      propertyPath: m_LocalRotation.z
      value: -0
      objectReference: {fileID: 0}
    - target: {fileID: 6147360515185493360, guid: 80eb034f052dba941b1d4b146f79a67e,
        type: 3}
      propertyPath: m_LocalRotation.w
      value: 0.53564227
      objectReference: {fileID: 0}
    - target: {fileID: 6147360515185493360, guid: 80eb034f052dba941b1d4b146f79a67e,
        type: 3}
      propertyPath: m_RootOrder
      value: 0
      objectReference: {fileID: 0}
    - target: {fileID: 6147360515185493360, guid: 80eb034f052dba941b1d4b146f79a67e,
        type: 3}
      propertyPath: m_LocalEulerAnglesHint.x
      value: 0
      objectReference: {fileID: 0}
    - target: {fileID: 6147360515185493360, guid: 80eb034f052dba941b1d4b146f79a67e,
        type: 3}
      propertyPath: m_LocalEulerAnglesHint.y
      value: 115.225006
      objectReference: {fileID: 0}
    - target: {fileID: 6147360515185493360, guid: 80eb034f052dba941b1d4b146f79a67e,
        type: 3}
      propertyPath: m_LocalEulerAnglesHint.z
      value: 0
      objectReference: {fileID: 0}
    - target: {fileID: 6147360515185493361, guid: 80eb034f052dba941b1d4b146f79a67e,
        type: 3}
      propertyPath: m_Name
      value: CrateMeat01
      objectReference: {fileID: 0}
    m_RemovedComponents: []
  m_SourcePrefab: {fileID: 100100000, guid: 80eb034f052dba941b1d4b146f79a67e, type: 3}
--- !u!4 &5184567889155610723 stripped
Transform:
  m_CorrespondingSourceObject: {fileID: 6147360515185493360, guid: 80eb034f052dba941b1d4b146f79a67e,
    type: 3}
  m_PrefabInstance: {fileID: 1350102247201086739}
  m_PrefabAsset: {fileID: 0}
--- !u!1001 &1350102247578419125
PrefabInstance:
  m_ObjectHideFlags: 0
  serializedVersion: 2
  m_Modification:
    m_TransformParent: {fileID: 1350102247522667545}
    m_Modifications:
    - target: {fileID: 6139779589647712881, guid: 35cb44d44b000754e9b36a8312e08285,
        type: 3}
      propertyPath: m_Name
      value: CrateMeat02
      objectReference: {fileID: 0}
    - target: {fileID: 6139779589647712882, guid: 35cb44d44b000754e9b36a8312e08285,
        type: 3}
      propertyPath: m_LocalPosition.x
      value: -0.256
      objectReference: {fileID: 0}
    - target: {fileID: 6139779589647712882, guid: 35cb44d44b000754e9b36a8312e08285,
        type: 3}
      propertyPath: m_LocalPosition.y
      value: 0
      objectReference: {fileID: 0}
    - target: {fileID: 6139779589647712882, guid: 35cb44d44b000754e9b36a8312e08285,
        type: 3}
      propertyPath: m_LocalPosition.z
      value: 0.015
      objectReference: {fileID: 0}
    - target: {fileID: 6139779589647712882, guid: 35cb44d44b000754e9b36a8312e08285,
        type: 3}
      propertyPath: m_LocalRotation.x
      value: -0
      objectReference: {fileID: 0}
    - target: {fileID: 6139779589647712882, guid: 35cb44d44b000754e9b36a8312e08285,
        type: 3}
      propertyPath: m_LocalRotation.y
      value: -0.6512134
      objectReference: {fileID: 0}
    - target: {fileID: 6139779589647712882, guid: 35cb44d44b000754e9b36a8312e08285,
        type: 3}
      propertyPath: m_LocalRotation.z
      value: -0
      objectReference: {fileID: 0}
    - target: {fileID: 6139779589647712882, guid: 35cb44d44b000754e9b36a8312e08285,
        type: 3}
      propertyPath: m_LocalRotation.w
      value: 0.75889474
      objectReference: {fileID: 0}
    - target: {fileID: 6139779589647712882, guid: 35cb44d44b000754e9b36a8312e08285,
        type: 3}
      propertyPath: m_RootOrder
      value: 1
      objectReference: {fileID: 0}
    - target: {fileID: 6139779589647712882, guid: 35cb44d44b000754e9b36a8312e08285,
        type: 3}
      propertyPath: m_LocalEulerAnglesHint.x
      value: 0
      objectReference: {fileID: 0}
    - target: {fileID: 6139779589647712882, guid: 35cb44d44b000754e9b36a8312e08285,
        type: 3}
      propertyPath: m_LocalEulerAnglesHint.y
      value: -81.26601
      objectReference: {fileID: 0}
    - target: {fileID: 6139779589647712882, guid: 35cb44d44b000754e9b36a8312e08285,
        type: 3}
      propertyPath: m_LocalEulerAnglesHint.z
      value: 0
      objectReference: {fileID: 0}
    m_RemovedComponents: []
  m_SourcePrefab: {fileID: 100100000, guid: 35cb44d44b000754e9b36a8312e08285, type: 3}
--- !u!4 &5154483944719875527 stripped
Transform:
  m_CorrespondingSourceObject: {fileID: 6139779589647712882, guid: 35cb44d44b000754e9b36a8312e08285,
    type: 3}
  m_PrefabInstance: {fileID: 1350102247578419125}
  m_PrefabAsset: {fileID: 0}
